<svg xmlns="http://www.w3.org/2000/svg" viewBox="0 0 46 44.86">
  <path fill="#fff" d="M43.939 2.236H24.03V1.052C24.03.471 23.569 0 23 0s-1.03.471-1.03 1.052v1.184H2.061C.924 2.236 0 3.18 0 4.341v1.952c0 1.161.924 2.105 2.061 2.105h.28v23.649c0 1.161.925 2.105 2.061 2.105H21.97v3.088l-7.636 5.719c-.459.344-.558 1.002-.222 1.471.337.469.982.57 1.44.227l6.417-4.807v3.958c0 .581.461 1.052 1.03 1.052s1.03-.471 1.03-1.052V39.85l6.417 4.807c.184.137.397.203.608.203.317 0 .63-.148.832-.43.337-.468.238-1.127-.221-1.471L24.03 37.24v-3.088h17.568c1.136 0 2.061-.944 2.061-2.104V8.397h.28c1.136 0 2.061-.943 2.061-2.104V4.341c0-1.161-.924-2.105-2.061-2.105zm-2.341 29.811H4.402V8.397h37.196v23.65zm2.341-25.754H2.061V4.341h41.878v1.952z"/>
  <path fill="#fff" d="M22.98 11.444c-.512 0-.927.424-.927.947v7.262h-7.112c-.512 0-.927.424-.927.947 0 5.048 4.022 9.156 8.966 9.156s8.967-4.107 8.967-9.156-4.022-9.156-8.967-9.156zm0 16.418c-3.607 0-6.596-2.756-7.052-6.314h7.052c.512 0 .927-.424.927-.947v-7.2c3.485.465 6.185 3.517 6.185 7.2 0 4.003-3.19 7.261-7.112 7.261z"/>
  <path fill="#fff" d="M19.841 10.465c-3.742 0-6.787 3.108-6.787 6.931 0 .523.416.947.927.947h5.859c.513 0 .928-.424.928-.947v-5.984c.001-.523-.414-.947-.927-.947zm-.927 5.984h-3.917c.377-2.02 1.94-3.615 3.917-4v4z"/>
</svg>
